…
library("ggplot2")

The two datasets I chose are from the website called Kaggle. The first one is named World Happiness Report which describes the happiness rank of 157 countries in 2016. There are 13 variables in this dataset which include: country, region, happiness rank, happiness score,
upper and lower confidence interval, GDP per capita, family, health, freedom, trust, generosity, and dystopian residual. The variables of this dataset were used to determine the overall happiness rank of each country. The second dataset is named WHO Suicide Statistics which includes the suicide rates of different countries from 1979-2016. There are 6 variables in this dataset which include: country, year, sex, age group, number of suicides, and population size. The variables of this dataset were used to show the suicide ratesof a country over time. The reason I chose these datasets is because I was interested in how countries differedfrom each other. I also believe that mental health is very important, and I wanted to see if happiness could be attributed to the amount of suicides in each country. I think that there may be some associations between happiness and suicide rates, with lower amounts of suicides being correlated to higher happiness rank.

1. Tidying

newsuicides <- suicides %>% pivot_wider(names_from="age", values_from="suicides_no")
newsuicides$suicide_count <- rowSums(newsuicides[, c("15-24 years", "25-34 years", "35-54 years", "5-14 years", "55-74 years", "75+ years")], na.rm = TRUE) 

newsuicides %>% group_by(country, year) %>% mutate(sum_suicides=sum(suicide_count))

## # A tibble: 39,180 x 12
## # Groups:   country, year [3,648]
##    country  year sex   population `15-24 years` `25-34 years` `35-54 years`
##    <fct>   <int> <fct>      <int>         <int>         <int>         <int>
##  1 Albania  1985 fema~     277900            NA            NA            NA
##  2 Albania  1985 fema~     246800            NA            NA            NA
##  3 Albania  1985 fema~     267500            NA            NA            NA
##  4 Albania  1985 fema~     298300            NA            NA            NA
##  5 Albania  1985 fema~     138700            NA            NA            NA
##  6 Albania  1985 fema~      34200            NA            NA            NA
##  7 Albania  1985 male      301400            NA            NA            NA
##  8 Albania  1985 male      264200            NA            NA            NA
##  9 Albania  1985 male      296700            NA            NA            NA
## 10 Albania  1985 male      325800            NA            NA            NA
## # ... with 39,170 more rows, and 5 more variables: `5-14 years` <int>, `55-74
## #   years` <int>, `75+ years` <int>, suicide_count <dbl>, sum_suicides <dbl>
…
countrydata %>% arrange(desc(happiness_score))

## # A tibble: 63 x 9
## # Groups:   Country [63]
##    Country happiness_score mean_suicides mean_population sd_suicides
##    <chr>             <dbl>         <dbl>           <dbl>       <dbl>
##  1 Switze~            7.59          536.        3946251        363. 
##  2 Iceland            7.56           20          154277         12.7
##  3 Denmark            7.53          282         2691530        153. 
##  4 Norway             7.52          295         2441454.       148. 
##  5 Finland            7.41          366.        2590898.       272. 
##  6 Nether~            7.38          936.        8028671        489. 
##  7 Sweden             7.36          591         4557262        368. 
##  8 Austra~            7.28         1514.       11120392.      1101. 
##  9 Israel             7.28          171         3758090        139. 
## 10 Austria            7.2           626.        4109693        474. 
## # ... with 53 more rows, and 4 more variables: sd_population <dbl>,
## #   median_suicides <dbl>, median_pop <dbl>, suicides_per_pop <dbl>

countrydata %>% arrange(suicides_per_pop)

## # A tibble: 63 x 9
## # Groups:   Country [63]
##    Country happiness_score mean_suicides mean_population sd_suicides
##    <chr>             <dbl>         <dbl>           <dbl>       <dbl>
##  1 Albania            4.96           0          1359842          0  
##  2 Belarus            5.81           0          4455174.         0  
##  3 Egypt              4.19          24         39442583         15.6
##  4 South ~            4.64         241         24813730        192. 
##  5 Turkey             5.33         766         35940232        522. 
##  6 Armenia            4.35          37          1397668.        25.5
##  7 Turkme~            5.55          66.5        2443257         36.1
##  8 Qatar              6.61          33          1177074.        33.9
##  9 Panama             6.79          55          1791691         50.9
## 10 Iran               4.69        1186         36230500.       679. 
## # ... with 53 more rows, and 4 more variables: sd_population <dbl>,
## #   median_suicides <dbl>, median_pop <dbl>, suicides_per_pop <dbl>
…
